{
    "editor.defaultFormatter": "esbenp.prettier-vscode",
    "editor.bracketPairColorization.enabled": true,
    "[typescript]": {
        "editor.formatOnSave": true,
        "editor.formatOnPaste": true,
        "editor.wordWrap": "on"
    },
    "git.gitignoreLimitWarning": true
}
